{
    "main": {
        "name": "Tasya Ekaputri",
        "description": "I'm a fullstack developer and this website id builded using reactJs",
        "image": "profilepic.jpg",
        "bio": "I'm a fullstack engineer whom experienced with nodeJs's framework, Adonis for two years. i also familiar with several kind programing language such as Python, react and some databases manipulation language such as MySql, mongoDb and ORM",
        "contactmessage": "Say Hi to me!",
        "email": "tasyaekaaputri@gmail.com",
        "phone": "081-383801285",
        "github": "https://github.com/tasyaekap/",
        "project": "https://github.com/nordicgiant2/react-nice-resume",
        "address": {
            "street": "",
            "city": "Jatiasih, Bekasi",
            "state": "Indonesia",
            "zip": "17420"
        },
        "website": "http://www.timbakerdev.com",
        "resumedownload": "https://drive.google.com/file/d/13Qb952wt_ZJWcUy9TGyAi6TKQwf3IagN/view?usp=sharing",
        "social": [{
                "name": "facebook",
                "url": "https://github.com/nordicgiant2/react-nice-resume",
                "className": "fa fa-facebook"
            },
            {
                "name": "twitter",
                "url": "http://twitter.com",
                "className": "fa fa-twitter"
            },
            {
                "name": "linkedin",
                "url": "https://www.linkedin.com/in/tim-baker-8420009a/",
                "className": "fa fa-linkedin"
            },
            {
                "name": "github",
                "url": "https://github.com/nordicgiant2/react-nice-resume",
                "className": "fa fa-github"
            }
        ]
    },
    "resume": {
        "skillmessage": "Here you can create a short write-up of your skills to show off to employers",
        "education": [{
            "school": "6 State Senior Highschool of Bekasi",
            "degree": "Science and Math",
            "graduated": "March 2013",
            "description": "Here i learned some basic skill that not related with programming"
        }],
        "course": [{
            "school": "BBPLK",
            "degree": "Database Programming",
            "graduated": "2017",
            "description": "Here i thaught how to manipulating databases, mainly about how mySql works."
        },{
            "school": "Progate",
            "degree": "Python",
            "graduated": "2021",
            "description": "I learned about classses of python, some kind of command and several others python basic skill"
        },
        {
            "school": "Progate",
            "degree": "ReactJS",
            "graduated": "2021",
            "description": "I learned about classses of ReactJs, some kind of command and several others reactjs basic skill"
        }
    ],
        "work": [{
            "company": "Total Inti Corpora",
            "title": "Junior Fullstack Programmer",
            "years": "2019 - Present",
            "description": "I'm working on junior position, i'm taking responsibilty on developing some program in backend (using nodeJs) and frontend (using a mixed language between vanilla javascript and jquery)"
        }],
        "skills": [
            {
                "skills": "Adonis JS (Frameworks)",
                "desc": "Intermediate to Advanced",
                "years": " ",
                "description": "i'm using this frameworks on every project on my portofolio"
            },    
        {
            "skills": "NodeJS (Native)",
            "desc": "Intermediate",
            "years": " ",
            "description": "My Skills on NodeJS is intermediate"
        },
        {
            "skills": "ReactJS (Framework)",
            "desc": "Beginner",
            "years": " ",
            "description": "This website is deployed using reactJs as it frameworks"
        },
        {
            "skills": "PHP (Native)",
            "desc": "Intermediate",
            "years": " ",
            "description": "This is the 1st language that i learn"
        },
        {
            "skills": "Laravel (Frameworks)",
            "desc": "Intermediate",
            "years": " ",
            "description": "My Skills on NodeJS is intermediate"
        },
        {
            "skills": "Laravel (Frameworks)",
            "desc": "Intermediate",
            "years": " ",
            "description": "My Skills on NodeJS is intermediate"
        },
        {
            "skills": "Python (Native)",
            "desc": "Beginner",
            "years": " ",
            "description": "I enrolled a course in python"
        },
        {
            "skills": "MySql",
            "desc": "Intermediate",
            "years": " ",
            "description": "I use mysql query along with ORM (lucid) on all of my project"
        },
        {
            "skills": "ORM",
            "desc": "Intermediate",
            "years": " ",
            "description": "I use ORM (lucid) along with raw queries on all of my project"
        }
        ]
    },
    "portfolio": {
        "projects": [{
                "title": "Fleet Management System",
                "category": "Dashboard Admin",
                "image": "01.png",
                "url": "https://www.canadianwanderlust.com"
            },
            {
                "title": "Fleet Management System",
                "category": "Route Optimation",
                "image": "02.png",
                "url": "http://www.timbakerdev.com"
            },
            {
                "title": "Driver Task Management",
                "category": "Dashboard Admin",
                "image": "03.png",
                "url": "http://www.timbakerdev.com/originalthaifood.github.io"
            },
            {
                "title": "Driver Task Management",
                "category": "Driver's Profile",
                "image": "04.png",
                "url": "http://www.timbakerdev.com"
            }
        ]
    }
}